…
``` r
data_clean
```

    ## # A tibble: 95,234 × 12
    ##    Year  Competition    Gender Level Name  Country problem attempts max_attempts
    ##    <chr> <chr>          <chr>  <chr> <chr> <chr>   <chr>      <int>        <int>
    ##  1 2008  Boulder IFSC … M      Q     Dmit… RUS     Top1           1            6
    ##  2 2008  Boulder IFSC … M      Q     Dmit… RUS     Zone1          1            9
    ##  3 2008  Boulder IFSC … M      Q     Dmit… RUS     Top2           1            5
    ##  4 2008  Boulder IFSC … M      Q     Dmit… RUS     Zone2          1            5
    ##  5 2008  Boulder IFSC … M      Q     Dmit… RUS     Top3           1            4
    ##  6 2008  Boulder IFSC … M      Q     Dmit… RUS     Zone3          1            6
    ##  7 2008  Boulder IFSC … M      Q     Dmit… RUS     Top4           1            7
    ##  8 2008  Boulder IFSC … M      Q     Dmit… RUS     Zone4          1            7
    ##  9 2008  Boulder IFSC … M      Q     Dmit… RUS     Top5           1            5
    ## 10 2008  Boulder IFSC … M      Q     Dmit… RUS     Zone5          1            6
    ## # ℹ 95,224 more rows
    ## # ℹ 3 more variables: status <lgl>, time <int>, climber <fct>
…
